<?xml version="1.0" encoding="UTF-8" standalone="no"?>
<!-- Created with Inkscape (http://www.inkscape.org/) -->

<svg
   xmlns:dc="http://purl.org/dc/elements/1.1/"
   xmlns:cc="http://creativecommons.org/ns#"
   xmlns:rdf="http://www.w3.org/1999/02/22-rdf-syntax-ns#"
   xmlns:svg="http://www.w3.org/2000/svg"
   xmlns="http://www.w3.org/2000/svg"
   xmlns:sodipodi="http://sodipodi.sourceforge.net/DTD/sodipodi-0.dtd"
   xmlns:inkscape="http://www.inkscape.org/namespaces/inkscape"
   width="340"
   height="340"
   id="svg2"
   version="1.1"
   inkscape:version="0.48.4 r9943 custom"
   sodipodi:docname="plot.svg">
  <sodipodi:namedview
     id="base"
     pagecolor="#ffffff"
     bordercolor="#666666"
     borderopacity="0"
     inkscape:pageopacity="0.0"
     inkscape:pageshadow="2"
     inkscape:zoom="0.64996634"
     inkscape:cx="174.41479"
     inkscape:cy="95.889565"
     inkscape:document-units="px"
     inkscape:current-layer="layer1"
     showgrid="false"
     inkscape:window-width="1440"
     inkscape:window-height="851"
     inkscape:window-x="0"
     inkscape:window-y="23"
     inkscape:window-maximized="0"
     fit-margin-top="0"
     fit-margin-left="0"
     fit-margin-right="0"
     fit-margin-bottom="0"
     inkscape:showpageshadow="false"
     showborder="true"
     borderlayer="false" />
  <defs
     id="defs4">
    <mask
       maskUnits="userSpaceOnUse"
       id="mask5835">
      <path
         sodipodi:type="arc"
         style="opacity:0.4607143;fill:#c7c600;fill-opacity:1;stroke:#1a1a1a"
         id="path5837"
         sodipodi:cx="276.93741"
         sodipodi:cy="441.56134"
         sodipodi:rx="156.9312"
         sodipodi:ry="156.9312"
         d="m 433.86861,441.56134 a 156.9312,156.9312 0 1 1 -313.8624,0 156.9312,156.9312 0 1 1 313.8624,0 z"
         transform="matrix(0.88735688,0,0,0.84070668,-96.176707,-273.16376)" />
    </mask>
  </defs>
  <metadata
     id="metadata7">
    <rdf:RDF>
      <cc:Work
         rdf:about="">
        <dc:format>image/svg+xml</dc:format>
        <dc:type
           rdf:resource="http://purl.org/dc/dcmitype/StillImage" />
        <dc:title></dc:title>
      </cc:Work>
    </rdf:RDF>
  </metadata>
  <g
     id="layer1"
     inkscape:groupmode="layer"
     inkscape:label="Ebene 1"
     transform="translate(-197.63245,-282.07066)">
    <g
       transform="matrix(1.1269423,0,0,1.1894755,199.15953,347.99972)"
       inkscape:label="Grid_Polar:X3:Y2"
       id="g4665"
       mask="url(#mask5835)">
      <g
         inkscape:label="MajorXGridlines"
         id="g4667"
         style="stroke:#666666">
        <path
           d="m 100,0 0,200"
           style="fill:none;stroke:#666666;stroke-width:2"
           inkscape:label="MajorXDiv1"
           id="path4669"
           inkscape:connector-curvature="0" />
        <path
           d="m 200,0 0,200"
           style="fill:none;stroke:#666666;stroke-width:2"
           inkscape:label="MajorXDiv2"
           id="path4671"
           inkscape:connector-curvature="0" />
      </g>
      <g
         inkscape:label="MajorYGridlines"
         id="g4673"
         style="stroke:#808080">
        <path
           d="m 0,100 300,0"
           style="fill:none;stroke:#808080;stroke-width:2"
           inkscape:label="MajorYDiv1"
           id="path4675"
           inkscape:connector-curvature="0" />
      </g>
      <g
         inkscape:label="MinorXGridlines"
         id="g4677"
         style="stroke:#666666">
        <path
           d="m 50,0 0,200"
           style="fill:none;stroke:#666666;stroke-width:1"
           inkscape:label="MinorXDiv0:1"
           id="path4679"
           inkscape:connector-curvature="0" />
        <path
           d="m 150,0 0,200"
           style="fill:none;stroke:#666666;stroke-width:1"
           inkscape:label="MinorXDiv1:1"
           id="path4681"
           inkscape:connector-curvature="0" />
        <path
           d="m 250,0 0,200"
           style="fill:none;stroke:#666666;stroke-width:1"
           inkscape:label="MinorXDiv2:1"
           id="path4683"
           inkscape:connector-curvature="0" />
      </g>
      <g
         inkscape:label="SubMinorXGridlines"
         id="g4685"
         style="stroke:#808080">
        <path
           d="m 10,0 0,200"
           style="fill:none;stroke:#808080;stroke-width:0.30000001"
           inkscape:label="SubminorXDiv0:0:1"
           id="path4687"
           inkscape:connector-curvature="0" />
        <path
           d="m 20,0 0,200"
           style="fill:none;stroke:#808080;stroke-width:0.30000001"
           inkscape:label="SubminorXDiv0:0:2"
           id="path4689"
           inkscape:connector-curvature="0" />
        <path
           d="m 30,0 0,200"
           style="fill:none;stroke:#808080;stroke-width:0.30000001"
           inkscape:label="SubminorXDiv0:0:3"
           id="path4691"
           inkscape:connector-curvature="0" />
        <path
           d="m 40,0 0,200"
           style="fill:none;stroke:#808080;stroke-width:0.30000001"
           inkscape:label="SubminorXDiv0:0:4"
           id="path4693"
           inkscape:connector-curvature="0" />
        <path
           d="m 60,0 0,200"
           style="fill:none;stroke:#808080;stroke-width:0.30000001"
           inkscape:label="SubminorXDiv0:1:1"
           id="path4695"
           inkscape:connector-curvature="0" />
        <path
           d="m 70,0 0,200"
           style="fill:none;stroke:#808080;stroke-width:0.30000001"
           inkscape:label="SubminorXDiv0:1:2"
           id="path4697"
           inkscape:connector-curvature="0" />
        <path
           d="m 80,0 0,200"
           style="fill:none;stroke:#808080;stroke-width:0.30000001"
           inkscape:label="SubminorXDiv0:1:3"
           id="path4699"
           inkscape:connector-curvature="0" />
        <path
           d="m 90,0 0,200"
           style="fill:none;stroke:#808080;stroke-width:0.30000001"
           inkscape:label="SubminorXDiv0:1:4"
           id="path4701"
           inkscape:connector-curvature="0" />
        <path
           d="m 110,0 0,200"
           style="fill:none;stroke:#808080;stroke-width:0.30000001"
           inkscape:label="SubminorXDiv1:0:1"
           id="path4703"
           inkscape:connector-curvature="0" />
        <path
           d="m 120,0 0,200"
           style="fill:none;stroke:#808080;stroke-width:0.30000001"
           inkscape:label="SubminorXDiv1:0:2"
           id="path4705"
           inkscape:connector-curvature="0" />
        <path
           d="m 130,0 0,200"
           style="fill:none;stroke:#808080;stroke-width:0.30000001"
           inkscape:label="SubminorXDiv1:0:3"
           id="path4707"
           inkscape:connector-curvature="0" />
        <path
           d="m 140,0 0,200"
           style="fill:none;stroke:#808080;stroke-width:0.30000001"
           inkscape:label="SubminorXDiv1:0:4"
           id="path4709"
           inkscape:connector-curvature="0" />
        <path
           d="m 160,0 0,200"
           style="fill:none;stroke:#808080;stroke-width:0.30000001"
           inkscape:label="SubminorXDiv1:1:1"
           id="path4711"
           inkscape:connector-curvature="0" />
        <path
           d="m 170,0 0,200"
           style="fill:none;stroke:#808080;stroke-width:0.30000001"
           inkscape:label="SubminorXDiv1:1:2"
           id="path4713"
           inkscape:connector-curvature="0" />
        <path
           d="m 180,0 0,200"
           style="fill:none;stroke:#808080;stroke-width:0.30000001"
           inkscape:label="SubminorXDiv1:1:3"
           id="path4715"
           inkscape:connector-curvature="0" />
        <path
           d="m 190,0 0,200"
           style="fill:none;stroke:#808080;stroke-width:0.30000001"
           inkscape:label="SubminorXDiv1:1:4"
           id="path4717"
           inkscape:connector-curvature="0" />
        <path
           d="m 210,0 0,200"
           style="fill:none;stroke:#808080;stroke-width:0.30000001"
           inkscape:label="SubminorXDiv2:0:1"
           id="path4719"
           inkscape:connector-curvature="0" />
        <path
           d="m 220,0 0,200"
           style="fill:none;stroke:#808080;stroke-width:0.30000001"
           inkscape:label="SubminorXDiv2:0:2"
           id="path4721"
           inkscape:connector-curvature="0" />
        <path
           d="m 230,0 0,200"
           style="fill:none;stroke:#808080;stroke-width:0.30000001"
           inkscape:label="SubminorXDiv2:0:3"
           id="path4723"
           inkscape:connector-curvature="0" />
        <path
           d="m 240,0 0,200"
           style="fill:none;stroke:#808080;stroke-width:0.30000001"
           inkscape:label="SubminorXDiv2:0:4"
           id="path4725"
           inkscape:connector-curvature="0" />
        <path
           d="m 260,0 0,200"
           style="fill:none;stroke:#808080;stroke-width:0.30000001"
           inkscape:label="SubminorXDiv2:1:1"
           id="path4727"
           inkscape:connector-curvature="0" />
        <path
           d="m 270,0 0,200"
           style="fill:none;stroke:#808080;stroke-width:0.30000001"
           inkscape:label="SubminorXDiv2:1:2"
           id="path4729"
           inkscape:connector-curvature="0" />
        <path
           d="m 280,0 0,200"
           style="fill:none;stroke:#808080;stroke-width:0.30000001"
           inkscape:label="SubminorXDiv2:1:3"
           id="path4731"
           inkscape:connector-curvature="0" />
        <path
           d="m 290,0 0,200"
           style="fill:none;stroke:#808080;stroke-width:0.30000001"
           inkscape:label="SubminorXDiv2:1:4"
           id="path4733"
           inkscape:connector-curvature="0" />
      </g>
      <g
         inkscape:label="SubMinorYGridlines"
         id="g4735">
        <path
           d="m 0,33.333333 300,0"
           style="fill:none;stroke:#000000;stroke-width:0.30000001"
           inkscape:label="SubminorXDiv0:0:1"
           id="path4737"
           inkscape:connector-curvature="0" />
        <path
           d="m 0,66.666667 300,0"
           style="fill:none;stroke:#000000;stroke-width:0.30000001"
           inkscape:label="SubminorXDiv0:0:2"
           id="path4739"
           inkscape:connector-curvature="0" />
        <path
           d="m 0,133.33333 300,0"
           style="fill:none;stroke:#000000;stroke-width:0.30000001"
           inkscape:label="SubminorXDiv1:0:1"
           id="path4741"
           inkscape:connector-curvature="0" />
        <path
           d="m 0,166.66667 300,0"
           style="fill:none;stroke:#000000;stroke-width:0.30000001"
           inkscape:label="SubminorXDiv1:0:2"
           id="path4743"
           inkscape:connector-curvature="0" />
      </g>
      <rect
         height="200"
         style="fill:none;stroke:#999999;stroke-width:0.95008856;stroke-miterlimit:4;stroke-dasharray:none"
         width="300"
         x="0"
         y="0"
         inkscape:label="Border"
         id="rect4745" />
    </g>
    <path
       transform="translate(90.773931,23.078118)"
       d="m 433.86861,441.56134 a 156.9312,156.9312 0 1 1 -313.8624,0 156.9312,156.9312 0 1 1 313.8624,0 z"
       sodipodi:ry="156.9312"
       sodipodi:rx="156.9312"
       sodipodi:cy="441.56134"
       sodipodi:cx="276.93741"
       id="path2985"
       style="opacity:0.4607143;fill:#c7c600;fill-opacity:1;stroke:#1a1a1a"
       sodipodi:type="arc" />
    <path
       inkscape:connector-curvature="0"
       id="path2987"
       d="m 199.36052,510.0075 c 121.19064,-157.66217 90.37241,0.72656 135.35037,-8.71865 44.97798,-9.4452 34.56641,-112.61583 75.37975,-111.16272 40.81335,1.45311 12.91034,227.41132 62.88587,127.1469 49.97553,-100.26441 64.13525,-79.9209 64.13525,-79.9209"
       style="fill:none;stroke:#0000ff;stroke-width:3.45614624;stroke-linecap:butt;stroke-linejoin:miter;stroke-miterlimit:4;stroke-opacity:1;stroke-dasharray:none" />
  </g>
</svg>
